zalshaye_4
…
# use augment to assign the clusters to our pharmaceutical companies
kmeans_tbl <- augment(k_cluster3, Pharmaceuticals_tbl) %>% 
  dplyr::select(pharma = .rownames, .cluster)

# join the kmeans data frame with the umap object
kmeans_umap <- kmeans_tbl %>% 
  left_join(umap_obj, by = c("pharma" = "Pharma"))

kmeans_umap

## # A tibble: 21 x 4
##    pharma                       .cluster       V1      V2
##    <chr>                        <fct>       <dbl>   <dbl>
##  1 Abbott Laboratories          2        -0.00639 -0.0382
##  2 Allergan, Inc.               1        -0.350    0.848 
##  3 Amersham plc                 1        -0.687   -0.339 
##  4 AstraZeneca PLC              2         1.54     0.178 
##  5 Aventis                      3        -0.776    1.31  
##  6 Bayer AG                     1        -0.739    0.313 
##  7 Bristol-Myers Squibb Company 2         1.07     0.495 
##  8 Chattem, Inc                 3        -1.82     0.0546
##  9 Elan Corporation, plc        3        -1.38    -0.217 
## 10 Eli Lilly and Company        2         0.414    0.440 
## # ... with 11 more rows
…
